C:\Users\jorge.serena\Java Academy.ws\Java Web\Partial-Exam\src\main\java\com\softtek\academy\javaweb\exam\controller\DoneController.java
C:\Users\jorge.serena\Java Academy.ws\Java Web\Partial-Exam\src\main\java\com\softtek\academy\javaweb\exam\dao\ToDoDAO.java
C:\Users\jorge.serena\Java Academy.ws\Java Web\Partial-Exam\src\main\java\com\softtek\academy\javaweb\exam\controller\ToDoListController.java
C:\Users\jorge.serena\Java Academy.ws\Java Web\Partial-Exam\src\main\java\com\softtek\academy\javaweb\exam\services\ToDoService.java
C:\Users\jorge.serena\Java Academy.ws\Java Web\Partial-Exam\src\main\java\com\softtek\academy\javaweb\exam\connection\MySQLConnection.java
C:\Users\jorge.serena\Java Academy.ws\Java Web\Partial-Exam\src\main\java\com\softtek\academy\javaweb\exam\beans\ToDo.java
C:\Users\jorge.serena\Java Academy.ws\Java Web\Partial-Exam\src\main\java\com\softtek\academy\javaweb\exam\controller\ToDoController.java
